Survival Data Analysis for Cancer Data
…
2.2 Basic tests and funtions

For this part we will use the data pbc (?pbc) from the package survival.

Note: data(pbc) load the pbc data-set and the pbcseq one, so on one side we do not need to call data(pbcseq) to load the letter, on the other side data(pbcseq) will throw an error because to load it we have to call data(pbc). (We will use both data-sets.)

set.seed(171003)
data(pbc)                                                    # load the data-set
# ?pbc
pbc_df <- as_tibble(pbc)                       # create the tibble version of it
dd <- datadist(pbc_df)     # store in the dd variable its `datadist()` for _rms_

pbc_df                                                       # give a look at it

## # A tibble: 418 x 20
##       id  time status   trt      age    sex ascites hepato spiders edema
##    <int> <int>  <int> <int>    <dbl> <fctr>   <int>  <int>   <int> <dbl>
##  1     1   400      2     1 58.76523      f       1      1       1   1.0
##  2     2  4500      0     1 56.44627      f       0      1       1   0.0
##  3     3  1012      2     1 70.07255      m       0      0       0   0.5
##  4     4  1925      2     1 54.74059      f       0      1       1   0.5
##  5     5  1504      1     2 38.10541      f       0      1       1   0.0
##  6     6  2503      2     2 66.25873      f       0      1       0   0.0
##  7     7  1832      0     2 55.53457      f       0      1       0   0.0
##  8     8  2466      2     2 53.05681      f       0      0       0   0.0
##  9     9  2400      2     1 42.50787      f       0      0       1   0.0
## 10    10    51      2     2 70.55989      f       1      0       1   1.0
## # ... with 408 more rows, and 10 more variables: bili <dbl>, chol <int>,
## #   albumin <dbl>, copper <int>, alk.phos <dbl>, ast <dbl>, trig <int>,
## #   platelet <int>, protime <dbl>, stage <int>
…
Treatment continue to have no effect

2.4 Longitudinal suvival data analayses

Load a data-set, update the datadist() for the rms package, and take a look at the data

pbcseq_df <- as_tibble(pbcseq)
dd <- datadist(pbcseq_df)

pbcseq_df

## # A tibble: 1,945 x 19
##       id futime status   trt      age    sex   day ascites hepato spiders
##    <int>  <int>  <int> <int>    <dbl> <fctr> <int>   <int>  <int>   <int>
##  1     1    400      2     1 58.76523      f     0       1      1       1
##  2     1    400      2     1 58.76523      f   192       1      1       1
##  3     2   5169      0     1 56.44627      f     0       0      1       1
##  4     2   5169      0     1 56.44627      f   182       0      1       1
##  5     2   5169      0     1 56.44627      f   365       0      1       1
##  6     2   5169      0     1 56.44627      f   768       0      1       1
##  7     2   5169      0     1 56.44627      f  1790       1      1       1
##  8     2   5169      0     1 56.44627      f  2151       1      1       1
##  9     2   5169      0     1 56.44627      f  2515       1      1       1
## 10     2   5169      0     1 56.44627      f  2882       1      1       1
## # ... with 1,935 more rows, and 9 more variables: edema <dbl>, bili <dbl>,
## #   chol <int>, albumin <dbl>, alk.phos <int>, ast <dbl>, platelet <int>,
## #   protime <dbl>, stage <int>
…
