Survival Data Analysis for Cancer Data
…
                 # the _rms_ one

mgus_df <- as_tibble(mgus)         # tidy data frame (important info printed all
                                   # together, and visualization auto-adjusted
                                   # to the consol width)
mgus_df

## # A tibble: 241 x 12
##       id   age    sex  dxyr   pcdx pctime futime death   alb creat   hgb
##  * <dbl> <dbl> <fctr> <dbl> <fctr>  <dbl>  <dbl> <dbl> <dbl> <dbl> <dbl>
##  1     1    78 female    68   <NA>     NA    748     1   2.8   1.2  11.5
##  2     2    73 female    66     LP   1310   6751     1    NA    NA    NA
##  3     3    87   male    68   <NA>     NA    277     1   2.2   1.1  11.2
##  4     4    86   male    69   <NA>     NA   1815     1   2.8   1.3  15.3
##  5     5    74 female    68   <NA>     NA   2587     1   3.0   0.8   9.8
##  6     6    81   male    68   <NA>     NA    563     1   2.9   0.9  11.5
##  7     7    72 female    68   <NA>     NA   1135     1   3.0   0.8  13.5
##  8     8    79 female    69   <NA>     NA   2016     1   3.1   0.8  15.5
##  9     9    85 female    70   <NA>     NA   2422     1   3.2   1.0  12.4
## 10    10    58   male    65   <NA>     NA   6155     1   3.5   1.0  14.8
## # ... with 231 more rows, and 1 more variables: mspike <dbl>
…
